digraph "Menu.h"
{
  edge [fontname="Helvetica",fontsize="10",labelfontname="Helvetica",labelfontsize="10"];
  node [fontname="Helvetica",fontsize="10",shape=record];
  Node0 [label="Menu.h",height=0.2,width=0.4,color="black", fillcolor="grey75", style="filled", fontcolor="black"];
  Node0 -> Node1 [color="midnightblue",fontsize="10",style="solid",fontname="Helvetica"];
  Node1 [label="iostream",height=0.2,width=0.4,color="grey75", fillcolor="white", style="filled"];
  Node0 -> Node2 [color="midnightblue",fontsize="10",style="solid",fontname="Helvetica"];
  Node2 [label="SonarSensor.h",height=0.2,width=0.4,color="black", fillcolor="white", style="filled",URL="$_sonar_sensor_8h.html"];
  Node2 -> Node3 [color="midnightblue",fontsize="10",style="solid",fontname="Helvetica"];
  Node3 [label="PioneerRobotAPI.h",height=0.2,width=0.4,color="black", fillcolor="white", style="filled",URL="$_pioneer_robot_a_p_i_8h.html"];
  Node3 -> Node4 [color="midnightblue",fontsize="10",style="solid",fontname="Helvetica"];
  Node4 [label="Aria.h",height=0.2,width=0.4,color="grey75", fillcolor="white", style="filled"];
  Node3 -> Node1 [color="midnightblue",fontsize="10",style="solid",fontname="Helvetica"];
  Node0 -> Node5 [color="midnightblue",fontsize="10",style="solid",fontname="Helvetica"];
  Node5 [label="LaserSensor.h",height=0.2,width=0.4,color="black", fillcolor="white", style="filled",URL="$_laser_sensor_8h.html"];
  Node5 -> Node3 [color="midnightblue",fontsize="10",style="solid",fontname="Helvetica"];
  Node0 -> Node6 [color="midnightblue",fontsize="10",style="solid",fontname="Helvetica"];
  Node6 [label="RobotControl.h",height=0.2,width=0.4,color="black", fillcolor="white", style="filled",URL="$_robot_control_8h.html"];
  Node6 -> Node1 [color="midnightblue",fontsize="10",style="solid",fontname="Helvetica"];
  Node6 -> Node3 [color="midnightblue",fontsize="10",style="solid",fontname="Helvetica"];
  Node6 -> Node7 [color="midnightblue",fontsize="10",style="solid",fontname="Helvetica"];
  Node7 [label="Pose.h",height=0.2,width=0.4,color="black", fillcolor="white", style="filled",URL="$_pose_8h.html"];
  Node7 -> Node8 [color="midnightblue",fontsize="10",style="solid",fontname="Helvetica"];
  Node8 [label="math.h",height=0.2,width=0.4,color="grey75", fillcolor="white", style="filled"];
  Node0 -> Node9 [color="midnightblue",fontsize="10",style="solid",fontname="Helvetica"];
  Node9 [label="Record.h",height=0.2,width=0.4,color="black", fillcolor="white", style="filled",URL="$_record_8h.html"];
  Node9 -> Node10 [color="midnightblue",fontsize="10",style="solid",fontname="Helvetica"];
  Node10 [label="stdio.h",height=0.2,width=0.4,color="grey75", fillcolor="white", style="filled"];
  Node9 -> Node1 [color="midnightblue",fontsize="10",style="solid",fontname="Helvetica"];
  Node9 -> Node11 [color="midnightblue",fontsize="10",style="solid",fontname="Helvetica"];
  Node11 [label="fstream",height=0.2,width=0.4,color="grey75", fillcolor="white", style="filled"];
  Node9 -> Node12 [color="midnightblue",fontsize="10",style="solid",fontname="Helvetica"];
  Node12 [label="string",height=0.2,width=0.4,color="grey75", fillcolor="white", style="filled"];
  Node0 -> Node7 [color="midnightblue",fontsize="10",style="solid",fontname="Helvetica"];
  Node0 -> Node13 [color="midnightblue",fontsize="10",style="solid",fontname="Helvetica"];
  Node13 [label="Path.h",height=0.2,width=0.4,color="black", fillcolor="white", style="filled",URL="$_path_8h.html"];
  Node13 -> Node14 [color="midnightblue",fontsize="10",style="solid",fontname="Helvetica"];
  Node14 [label="Node.h",height=0.2,width=0.4,color="black", fillcolor="white", style="filled",URL="$_node_8h.html"];
  Node14 -> Node7 [color="midnightblue",fontsize="10",style="solid",fontname="Helvetica"];
  Node13 -> Node1 [color="midnightblue",fontsize="10",style="solid",fontname="Helvetica"];
  Node13 -> Node12 [color="midnightblue",fontsize="10",style="solid",fontname="Helvetica"];
  Node0 -> Node15 [color="midnightblue",fontsize="10",style="solid",fontname="Helvetica"];
  Node15 [label="Encryption.h",height=0.2,width=0.4,color="black", fillcolor="white", style="filled",URL="$_encryption_8h.html"];
  Node0 -> Node14 [color="midnightblue",fontsize="10",style="solid",fontname="Helvetica"];
  Node0 -> Node16 [color="midnightblue",fontsize="10",style="solid",fontname="Helvetica"];
  Node16 [label="RobotOperator.h",height=0.2,width=0.4,color="black", fillcolor="white", style="filled",URL="$_robot_operator_8h.html"];
  Node16 -> Node12 [color="midnightblue",fontsize="10",style="solid",fontname="Helvetica"];
  Node16 -> Node1 [color="midnightblue",fontsize="10",style="solid",fontname="Helvetica"];
  Node16 -> Node15 [color="midnightblue",fontsize="10",style="solid",fontname="Helvetica"];
}
