digraph "SonarSensor::SonarSensor"
{
  edge [fontname="Helvetica",fontsize="10",labelfontname="Helvetica",labelfontsize="10"];
  node [fontname="Helvetica",fontsize="10",shape=record];
  rankdir="LR";
  Node0 [label="SonarSensor::SonarSensor",height=0.2,width=0.4,color="black", fillcolor="grey75", style="filled", fontcolor="black"];
  Node0 -> Node1 [color="midnightblue",fontsize="10",style="solid",fontname="Helvetica"];
  Node1 [label="PioneerRobotAPI::getSonar\lRange",height=0.2,width=0.4,color="black", fillcolor="white", style="filled",URL="$class_pioneer_robot_a_p_i.html#ad93700058f493f3fc998b23a0cf46dfa"];
}
