digraph "Pose::setX"
{
  edge [fontname="Helvetica",fontsize="10",labelfontname="Helvetica",labelfontsize="10"];
  node [fontname="Helvetica",fontsize="10",shape=record];
  rankdir="LR";
  Node98 [label="Pose::setX",height=0.2,width=0.4,color="black", fillcolor="grey75", style="filled", fontcolor="black"];
  Node98 -> Node99 [dir="back",color="midnightblue",fontsize="10",style="solid",fontname="Helvetica"];
  Node99 [label="Pose::operator+",height=0.2,width=0.4,color="black", fillcolor="white", style="filled",URL="$class_pose.html#a1c867394d66270d4a298ba7356bac85d",tooltip="Verilen iki pozisyon degerlerini toplayan fonksiyondur. "];
  Node98 -> Node100 [dir="back",color="midnightblue",fontsize="10",style="solid",fontname="Helvetica"];
  Node100 [label="Pose::operator-",height=0.2,width=0.4,color="black", fillcolor="white", style="filled",URL="$class_pose.html#ad84fca234e5b3a9544e4ce7ee6ec33c7",tooltip="Verilen iki pozisyon degerlerini cikaran fonksiyondur. "];
  Node98 -> Node101 [dir="back",color="midnightblue",fontsize="10",style="solid",fontname="Helvetica"];
  Node101 [label="Pose::operator+=",height=0.2,width=0.4,color="black", fillcolor="white", style="filled",URL="$class_pose.html#a9d588c435a064ac0444287aa2ca6c90b"];
  Node98 -> Node102 [dir="back",color="midnightblue",fontsize="10",style="solid",fontname="Helvetica"];
  Node102 [label="Pose::operator-=",height=0.2,width=0.4,color="black", fillcolor="white", style="filled",URL="$class_pose.html#a66ca863032adf7501f7533f209d56f57"];
  Node98 -> Node103 [dir="back",color="midnightblue",fontsize="10",style="solid",fontname="Helvetica"];
  Node103 [label="Pose::setPose",height=0.2,width=0.4,color="black", fillcolor="white", style="filled",URL="$class_pose.html#a11b000afc4738938e18ecd7d4f0270d2"];
}
