digraph "Pose::setY"
{
  edge [fontname="Helvetica",fontsize="10",labelfontname="Helvetica",labelfontsize="10"];
  node [fontname="Helvetica",fontsize="10",shape=record];
  rankdir="LR";
  Node105 [label="Pose::setY",height=0.2,width=0.4,color="black", fillcolor="grey75", style="filled", fontcolor="black"];
  Node105 -> Node106 [dir="back",color="midnightblue",fontsize="10",style="solid",fontname="Helvetica"];
  Node106 [label="Pose::operator+",height=0.2,width=0.4,color="black", fillcolor="white", style="filled",URL="$class_pose.html#a1c867394d66270d4a298ba7356bac85d",tooltip="Verilen iki pozisyon degerlerini toplayan fonksiyondur. "];
  Node105 -> Node107 [dir="back",color="midnightblue",fontsize="10",style="solid",fontname="Helvetica"];
  Node107 [label="Pose::operator-",height=0.2,width=0.4,color="black", fillcolor="white", style="filled",URL="$class_pose.html#ad84fca234e5b3a9544e4ce7ee6ec33c7",tooltip="Verilen iki pozisyon degerlerini cikaran fonksiyondur. "];
  Node105 -> Node108 [dir="back",color="midnightblue",fontsize="10",style="solid",fontname="Helvetica"];
  Node108 [label="Pose::operator+=",height=0.2,width=0.4,color="black", fillcolor="white", style="filled",URL="$class_pose.html#a9d588c435a064ac0444287aa2ca6c90b"];
  Node105 -> Node109 [dir="back",color="midnightblue",fontsize="10",style="solid",fontname="Helvetica"];
  Node109 [label="Pose::operator-=",height=0.2,width=0.4,color="black", fillcolor="white", style="filled",URL="$class_pose.html#a66ca863032adf7501f7533f209d56f57"];
  Node105 -> Node110 [dir="back",color="midnightblue",fontsize="10",style="solid",fontname="Helvetica"];
  Node110 [label="Pose::setPose",height=0.2,width=0.4,color="black", fillcolor="white", style="filled",URL="$class_pose.html#a11b000afc4738938e18ecd7d4f0270d2"];
}
